<?xml version="1.0" encoding="UTF-8" standalone="no"?>
<!-- Created with Inkscape (http://www.inkscape.org/) -->

<svg
   xmlns:dc="http://purl.org/dc/elements/1.1/"
   xmlns:cc="http://creativecommons.org/ns#"
   xmlns:rdf="http://www.w3.org/1999/02/22-rdf-syntax-ns#"
   xmlns:svg="http://www.w3.org/2000/svg"
   xmlns="http://www.w3.org/2000/svg"
   xmlns:xlink="http://www.w3.org/1999/xlink"
   version="1.1"
   width="359.57144"
   height="359.57144"
   id="svg2">
  <title
     id="title3804">Boatload Logo</title>
  <defs
     id="defs4">
    <linearGradient
       id="linearGradient3763">
      <stop
         id="stop3765"
         style="stop-color:#ffa127;stop-opacity:1"
         offset="0" />
    </linearGradient>
    <linearGradient
       x1="183.70132"
       y1="256.6019"
       x2="436.27112"
       y2="256.6019"
       id="linearGradient3767"
       xlink:href="#linearGradient3763"
       gradientUnits="userSpaceOnUse"
       gradientTransform="matrix(0.66715912,0,0,0.66715912,93.588745,65.889747)" />
    <linearGradient
       x1="183.70132"
       y1="256.6019"
       x2="436.27112"
       y2="256.6019"
       id="linearGradient3792"
       xlink:href="#linearGradient3763"
       gradientUnits="userSpaceOnUse"
       gradientTransform="matrix(0.66715912,0,0,0.66715912,93.588745,65.889747)" />
  </defs>
  <metadata
     id="metadata7">
    <rdf:RDF>
      <cc:Work
         rdf:about="">
        <dc:format>image/svg+xml</dc:format>
        <dc:type
           rdf:resource="http://purl.org/dc/dcmitype/StillImage" />
        <dc:title>Boatload Logo</dc:title>
        <dc:date>29th March 2015</dc:date>
        <dc:creator>
          <cc:Agent>
            <dc:title>Kieran David Evans</dc:title>
          </cc:Agent>
        </dc:creator>
        <dc:rights>
          <cc:Agent>
            <dc:title>Copyright (C) Kieran David Evans 2015</dc:title>
          </cc:Agent>
        </dc:rights>
        <dc:publisher>
          <cc:Agent>
            <dc:title>Kieran David Evans</dc:title>
          </cc:Agent>
        </dc:publisher>
      </cc:Work>
    </rdf:RDF>
  </metadata>
  <g
     transform="translate(-120.61316,-57.173613)"
     id="layer1">
    <g
       id="g3798">
      <path
         d="m 472.85716,237.36218 a 179.28572,179.28572 0 1 1 -358.57144,0 179.28572,179.28572 0 1 1 358.57144,0 z"
         transform="translate(6.8274438,-0.402849)"
         id="path2985-3"
         style="fill:#85c7f5;fill-opacity:1;fill-rule:evenodd;stroke:#58b2f2" />
      <g
         transform="matrix(0.99846601,0,0,1,0.18963258,0.375)"
         id="g3820"
         style="fill:#31a0ef;fill-opacity:1;stroke:#0474c4;stroke-opacity:1">
        <path
           d="m 300.47645,415.59419 c -89.71022,0 -164.0312,-65.88915 -176.85532,-151.97403 37.4296,-0.007 36.12437,-34.07173 14.50511,-88.45818 0,0 39.29716,16.37382 56.13879,40.70063 16.84164,24.3268 22.8542,44.45509 40.60687,46.81357 4.68399,0.65428 8.06979,0.87714 10.59265,0.9048 0.0746,-0.006 0.10332,-0.006 0.13204,-0.006 36.98728,6.6e-4 35.66733,-34.05392 14.06482,-88.39822 0,0 39.29716,16.37381 56.13879,40.70063 16.84164,24.3268 22.85421,44.45509 40.71329,46.7877 4.79039,0.62841 8.17618,0.85127 10.6764,0.88126 37.09868,0.0492 35.79345,-34.01604 14.17419,-88.40248 0,0 39.29715,16.37381 56.13879,40.70062"
           id="path2985"
           style="fill:#31a0ef;fill-opacity:1;stroke:#0474c4;stroke-opacity:1" />
        <path
           d="m 437.50287,215.84449 c 16.84164,24.32681 22.85421,44.4551 40.41496,46.89642 -13.087,86.57295 -87.61034,152.91578 -177.62888,152.91578"
           id="path3763"
           style="fill:#31a0ef;fill-opacity:1;stroke:#0474c4;stroke-width:0.92624277px;stroke-linecap:butt;stroke-linejoin:miter;stroke-opacity:1" />
      </g>
    </g>
    <g
       transform="translate(0,34)"
       id="g3786">
      <path
         d="m 216.48034,211.31454 28.06929,51.65693 103.07797,0 36.68983,-51.77487 -167.83709,0.11794"
         id="path3862"
         style="fill:url(#linearGradient3792);fill-opacity:1;stroke:#ff9000;stroke-width:0.66715914;stroke-linecap:round;stroke-linejoin:round;stroke-miterlimit:4;stroke-opacity:1;stroke-dasharray:none" />
      <g
         transform="translate(0,10)"
         id="g3782">
        <path
           d="m 283.25,199.54369 0,-78.55651 7.25,0 0,78.55651 z"
           id="path3772"
           style="fill:#ffa127;fill-opacity:1;stroke:#ff9000;stroke-width:0.89078617px;stroke-linecap:butt;stroke-linejoin:miter;stroke-opacity:1" />
        <path
           d="m 292.68354,121.34059 0,67.35192 49.76264,-38.53732 z"
           id="path3774"
           style="fill:#ffa127;stroke:#ff9000;stroke-width:1px;stroke-linecap:butt;stroke-linejoin:miter;stroke-opacity:1" />
      </g>
    </g>
  </g>
</svg>
